…
Which sounds higher, `4 out of 10`, or `300 out of 1000`? Obviously 4/10
= 0.4 and 300/1000 = 0.3. `0.4` \> `0.3` so the answer is clear, but 10
AB is not nearly as much evidence as 1000 AB, so we would have different
levels of confidence regarding each. This sort of hits / attempts
analysis is not limited to baseball, consider online advertising for a
simliar “proportion of success” analysis.

### 2.1 The Lahman baseball dataset

Let’s look at real baseball stats wth `Lahman`.

    ## `summarise()` ungrouping output (override with `.groups` argument)

    ## # A tibble: 9,741 x 4
    ##    name                  H    AB average
    ##    <chr>             <int> <int>   <dbl>
    ##  1 Hank Aaron         3771 12364  0.305 
    ##  2 Tommie Aaron        216   944  0.229 
    ##  3 Andy Abad             2    21  0.0952
    ##  4 John Abadie          11    49  0.224 
    ##  5 Ed Abbaticchio      772  3044  0.254 
    ##  6 Fred Abbott         107   513  0.209 
    ##  7 Jeff Abbott         157   596  0.263 
    ##  8 Kurt Abbott         523  2044  0.256 
    ##  9 Ody Abbott           13    70  0.186 
    ## 10 Frank Abercrombie     0     4  0     
    ## # … with 9,731 more rows
…
    ## $alpha
    ## [1] 79.80907
    ## 
    ## $beta
    ## [1] 228.7358

We can use these paramters to create an estimated batting average.

Looking more closely at the results, the best and words are not simply
the players with small numbers of at bats with particularly good or bad
records.

    ## # A tibble: 9,741 x 5
    ##    name                   H    AB average eb_estimate
    ##    <chr>              <int> <int>   <dbl>       <dbl>
    ##  1 Bill Bergen          516  3028   0.170       0.179
    ##  2 Ray Oyler            221  1265   0.175       0.191
    ##  3 John Vukovich         90   559   0.161       0.196
    ##  4 John Humphries        52   364   0.143       0.196
    ##  5 George Baker          74   474   0.156       0.197
    ##  6 Henry Easterday      203  1129   0.180       0.197
    ##  7 Buck Gladmon          56   380   0.147       0.197
    ##  8 Charlie Armbruster    53   355   0.149       0.200
    ##  9 Bill Traffley        116   663   0.175       0.202
    ## 10 Mike Ryan            370  1920   0.193       0.202
    ## # … with 9,731 more rows

    ## # A tibble: 9,741 x 5
    ##    name                     H    AB average eb_estimate
    ##    <chr>                <int> <int>   <dbl>       <dbl>
    ##  1 Rogers Hornsby        2930  8173   0.358       0.355
    ##  2 Shoeless Joe Jackson  1772  4981   0.356       0.350
    ##  3 Ed Delahanty          2597  7510   0.346       0.342
    ##  4 Billy Hamilton        2164  6283   0.344       0.340
    ##  5 Harry Heilmann        2660  7787   0.342       0.338
    ##  6 Willie Keeler         2932  8591   0.341       0.338
    ##  7 Bill Terry            2193  6428   0.341       0.337
    ##  8 Lou Gehrig            2721  8001   0.340       0.337
    ##  9 Nap Lajoie            3243  9590   0.338       0.336
    ## 10 Tony Gwynn            3141  9288   0.338       0.336
    ## # … with 9,731 more rows
…
